// Jest Snapshot v1, https://goo.gl/fbAQLP

exports[`Loader should generate snapshot 1`] = `
<View
  pointerEvents="auto"
  style={
    Object {
      "alignItems": "center",
      "backgroundColor": "rgba(255, 255, 255, 0.3)",
      "bottom": 0,
      "justifyContent": "center",
      "left": 0,
      "opacity": 0,
      "position": "absolute",
      "right": 0,
      "top": 0,
      "zIndex": 1000,
    }
  }
>
  <ActivityIndicator
    animating={true}
    color="white"
    hidesWhenStopped={true}
    size="large"
  />
</View>
`;
